{"quotes" :[
    {
        "quote":"Do not pray for an easy life, pray for the strength to endure a difficult one.",
        "author":"Bruce Lee"
    },
    {
        "quote":"Patience is bitter, but its fruit is sweet.",
        "author":"Jean-Jacques Rousseau"
    },
    {
        "quote":"You usually have to wait for that which is worth waiting for.",
        "author":"Craig Bruce"
    },
    {
        "quote":"Patience is not passive, on the contrary, it is concentrated strength.",
        "author":"Bruce Lee"
    },
    {
        "quote":"Patience and fortitude conquer all things.",
        "author":"Ralph Waldo Emerson"
    },
    {
        "quote":"There is no substitute for hard work.",
        "author":"Thomas Edison"
    },
    {
        "quote":"When he worked, he really worked. But when he played, he really played.",
        "author":"Dr. Seuss"
    },
    {
        "quote":"You just have to put in 80 to 100 hour weeks every week.",
        "author":"Elon Musk"
    },
    {
        "quote":"There are no secrets to success. It is the result of preparation, hard work, and learning from failure.",
        "author":"Colin Powell"
    },
    {
        "quote":"No matter how hard you work, someone else is working harder.",
        "author":"George Washington"
    },
    {
        "quote":"There’s a way to do it better – find it.",
        "author":"Elon Musk"
    },
    {
        "quote":"Hard work betrays none.",
        "author":"Isaac Newton"
    },
    {
        "quote":"What worries you, masters you.",
        "author":"Hachiman Hikigaya"
    },
    {
        "quote":"Do not whine… Do not complain. Work harder. Spend more time alone.",
        "author":"Joan Didion"
    },
    {
        "quote":"The ones who say you can’t are too afraid you will.",
        "author":"Nike"
    },
    {
        "quote":"I didn’t get there by wishing for it or hoping for it, but by working for it.",
        "author":"Estée Lauder"
    },
    {
        "quote":"The scariest moment is always just before you start.",
        "author":"Stephen King"
    },
    {
        "quote":"Little by little, one travels far.",
        "author":"J. R. R. Tolkien"
    },
    {
        "quote":"We know what we are, but know not what we may be.",
        "author":"William Shakespeare"
    },
    {
        "quote":"Paths are made by walking.",
        "author":"Franz Kafka"
    },
    {
        "quote":"Begin now to be what you will be hereafter.",
        "author":"Saint Jerome"
    },
    {
        "quote":"We have to do the best we are capable of. This is our sacred human responsibility.",
        "author":"Albert Einstein"
    },
    {
        "quote":"Everything is possible. The impossible just takes longer.",
        "author":"Dan Brown"
    },
    {
        "quote":"The world is full of magic things, patiently waiting for our senses to grow sharper.",
        "author":"W.B. Yeats"
    },
    {
        "quote":"It is not in the stars to hold our destiny but in ourselves.",
        "author":"William Shakespeare"
    },
    {
        "quote":"Understand: you are one of a kind. Your character traits are a kind of chemical mix that will never be repeated in history. There are ideas unique to you, a specific rhythm and perspective that are your strengths, not your weaknesses. You must not be afraid of your uniqueness.",
        "author":"Robert Greene"
    },
    {
        "quote":"Take your time, play the long game, embrace the boring, the difficulties, the uncomfortable. This is how it will happen.",
        "author":"Maxime Lagacé"
    },
    {
        "quote":"The secret of getting ahead is getting started.",
        "author":"Mark Twain"
    },
    {
        "quote":"Ever tried. Ever failed. No matter. Try again. Fail again. Fail better.",
        "author":"Samuel Beckett"
    },
    {
        "quote":"The only way to do great work is to love what you do. If you haven’t found it yet, keep looking. Don’t settle. As with all matters of the heart, you’ll know when you find it.",
        "author":"Steve Jobs"
    },
    {
        "quote":"When you know what you want, and want it bad enough, you will find a way to get it.",
        "author":"Jim Rohn"
    },
    {
        "quote":"If you don’t know where you are going, you will probably end up somewhere else.",
        "author":"Laurence J. Peter"
    },
    {
        "quote":"Don’t let what you cannot do interfere with what you can do. John Wooden",
        "author":"John Wooden"
    },
    {
        "quote":"Magic is believing in yourself, if you can do that, you can make anything happen.",
        "author":"Johann Wolfgang von Goethe"
    },
    {
        "quote":"Remember: nobody said it would be easy.",
        "author":"Maxime Lagacé"
    },
    {
        "quote":"You’ll never change your life until you change something you do daily. The secret of your success is found in your daily routine.",
        "author":"John C. Maxwell"
    },
    {
        "quote":"Don’t think about what can happen in a month. Don’t think about what can happen in a year. Just focus on the 24 hours in front of you and do what you can to get closer to where you want to be.If you care enough for a result, you will most certainly attain it.",
        "author":"William James"
    },
    {
        "quote":"To be prepared is half the victory.",
        "author":"Miguel de Cervantes"
    },
    {
        "quote":"The only question to ask yourself is, how much are you willing to sacrifice to achieve this success?",
        "author":"Larry Flynt"
    },
    {
        "quote":"One day or day one. You decide.",
        "author":"Unknown"
    },
    {
        "quote":"Today was good. Today was fun. Tomorrow is another one.",
        "author":"Dr. Seuss"
    },
    {
        "quote":"I didn’t get there by wishing for it or hoping for it, but by working for it.",
        "author":"Estée Lauder"
    },
    {
        "quote":"Nothing happens unless something is moved.",
        "author":"Albert Einstein"
    },
    {
        "quote":"Life is a process of becoming, a combination of states we have to go through. Where people fail is that they wish to elect a state and remain in it. This is a kind of death.",
        "author":"Anais Nin"
    },
    {
        "quote":"Everyone thinks of changing the world, but no one thinks of changing himself.",
        "author":"Leo Tolstoy"
    },
    {
        "quote":"The only person you are destined to become is the person you decide to be.",
        "author":"Ralph Waldo Emerson"
    },
    {
        "quote":"To exist is to change, to change is to mature, to mature is to go on creating oneself endlessly.",
        "author":"Henri Bergson"
    },
    {
        "quote":"In a world deluged by irrelevant information, clarity is power.",
        "author":"Yuval Noah Harari"
    },
    {
        "quote":"Only through focus can you do world-class things, no matter how capable you are.",
        "author":"Bill Gates"
    },
    {
        "quote":"It is those who concentrate on but one thing at a time who advance in this world.",
        "author":"Og Mandino"
    },
    {
        "quote":"The successful warrior is the average man, with laser-like focus.",
        "author":"Bruce Lee"
    },
    {
        "quote":"Too much sugar leads to a heavy body, and too many distractions lead to a heavy mind.",
        "author":"Naval Ravikant"
    },
    {
        "quote":"Knowing what to leave out is just as important as knowing what to focus on.",
        "author":"Warren Buffett"
    },
    {
        "quote":"I’ll live the focused life, because it’s the best kind there is.",
        "author":"Winifred Gallagher"
    },
    {
        "quote":"If I had an hour to solve a problem, I’d spend 55 minutes thinking about the problem and 5 minutes thinking about solutions.",
        "author":"Albert Einstein"
    },
    {
        "quote":"Always ask yourself if what you’re doing today is getting you closer to where you want to be tomorrow.",
        "author":"Paulo Coelho"
    },
    {
        "quote":"Do not wait to strike till the iron is hot. Make it hot by striking.",
        "author":"William Butler Yeats"
    },
    {
        "quote":"If you can dream it, you can do it.",
        "author":"Walt Disney"
    },
    {
        "quote":"Only those who dare to fail greatly can ever achieve greatly.",
        "author":"Robert F. Kennedy"
    },
    {
        "quote":"Never, never, never give up.",
        "author":"Winston Churchill"
    },
    {
        "quote":"Success is walking from failure to failure with no loss of enthusiasm.",
        "author":"Winston Churchill"
    },
    {
        "quote":"Don’t stop when you’re tired; stop when you’re done.",
        "author":"Marilyn Monroe"
    },
    {
        "quote":"The secret of getting ahead is getting started.",
        "author":"Mark Twain"
    },
    {
        "quote":"Whatever the mind of man can conceive and believe, it can achieve.",
        "author":"Napoleon Hill"
    },
    {
        "quote":"Wake up determined. Go to bed satisfied.",
        "author":"Dwayne Johnson (The Rock)"
    },
    {
        "quote":"Show them what crazy dreams can do.",
        "author":"Nike"
    },
    {
        "quote":"We must act.",
        "author":"Marie Curie"
    },
    {
        "quote":"Remember why you started.",
        "author":"Erin Janus"
    },
    {
        "quote":"I am not talented. I am obsessed.",
        "author":"Conor McGregor"
    },
    {
        "quote":"If you can’t stop thinking about it, don’t stop working for it.",
        "author":"Unknown"
    },
    {
        "quote":"I didn’t come this far to only go this far.",
        "author":"Unknown"
    },
    {
        "quote":"The moment you want to quit is the moment you need to keep pushing.",
        "author":"Unknown"
    },
    {
        "quote":"Don’t stop until you’re proud.",
        "author":"Unknown"
    },
    {
        "quote":"Don’t look back – you’re not going that way.",
        "author":"Unknown"
    }
]}